{
  "project_info": {
    "project_number": "780687916196",
    "firebase_url": "https://assembleapparel.firebaseio.com",
    "project_id": "assembleapparel",
    "storage_bucket": "assembleapparel.appspot.com"
  },
  "client": [
    {
      "client_info": {
        "mobilesdk_app_id": "1:780687916196:android:e256b4d7532e7029",
        "android_client_info": {
          "package_name": "com.example.assembleapparel"
        }
      },
      "oauth_client": [
        {
          "client_id": "780687916196-323hmi9rittvkopldv6bk8utcfdfhqde.apps.googleusercontent.com",
          "client_type": 3
        }
      ],
      "api_key": [
        {
          "current_key": "AIzaSyAfDAqluwaT1dgEu1CHTtWWLZwDgGiIJuY"
        }
      ],
      "services": {
        "appinvite_service": {
          "other_platform_oauth_client": [
            {
              "client_id": "780687916196-323hmi9rittvkopldv6bk8utcfdfhqde.apps.googleusercontent.com",
              "client_type": 3
            }
          ]
        }
      }
    }
  ],
  "configuration_version": "1"
}